<svg xmlns="http://www.w3.org/2000/svg" width="26" height="26" viewBox="0 0 26 26">
  <g id="Group_130" data-name="Group 130" transform="translate(-2627 374) rotate(-90)">
    <g id="Group_122" data-name="Group 122" transform="translate(-192 -2195)">
      <g id="Ellipse_1" data-name="Ellipse 1" transform="translate(540 4822)" fill="none" stroke="#fff" stroke-width="1">
        <circle cx="13" cy="13" r="13" stroke="none"/>
        <circle cx="13" cy="13" r="12.5" fill="none"/>
      </g>
      <path id="Path_204" data-name="Path 204" d="M598.362,413.41l.831-.831-.831-.831-4.784-4.784-.831.831,4.784,4.784-4.784,4.784.831.831Z" transform="translate(-43.193 4422.279)" fill="#fff" stroke="#fff" stroke-width="1"/>
    </g>
    <path id="Path_205" data-name="Path 205" d="M598.362,413.41l.831-.831-.831-.831-4.784-4.784-.831.831,4.784,4.784-4.784,4.784.831.831Z" transform="translate(-234.748 2227.035)" fill="#fff"/>
  </g>
</svg>
